460,498
460,499
460,500
460,501
460,502
460,503
460,504
460,505
460,506
460,507
460,508
460,509
460,510
460,511
460,512
460,513
460,514
460,515
460,516
460,517
460,518
460,519
460,520
460,521
460,522
460,523
460,524
460,525
460,526
460,527
460,528
460,529
460,530
460,531
460,532
460,533
460,534
460,535
460,536
460,537
460,538
460,539
461,539
462,539
463,539
464,539
465,539
466,539
467,539
468,539
469,539
470,539
471,539
472,539
473,539
474,539
475,539
476,539
477,539
478,539
479,539
480,539
481,539
482,539
483,539
484,539
485,539
486,539
487,539
488,539
489,539
490,539
491,539
492,539
493,539
494,539
495,539
496,539
497,539
498,539
499,539
500,539
501,539
502,539
503,539
504,539
505,539
506,539
507,539
508,539
509,539
510,539
511,539
512,539
513,539
514,539
515,539
516,539
517,539
518,539
519,539
520,539
521,539
522,539
523,539
524,539
525,539
526,539
527,539
528,539
529,539
530,539
531,539
532,539
533,539
534,539
535,539
536,539
537,539
538,539
539,539
540,539
541,539
542,539
543,539
544,539
545,539
546,539
547,539
548,539
549,539
550,539
551,539
552,539
553,539
554,539
555,539
556,539
557,539
558,539
559,539
560,539
561,539
562,539
563,539
564,539
565,539
566,539
567,539
568,539
569,539
570,539
571,539
572,539
573,539
574,539
575,539
576,539
577,539
578,539
579,539
580,539
581,539
582,539
583,539
584,539
585,539
586,539
587,539
588,539
589,539
590,539
591,539
592,539
593,539
594,539
595,539
596,539
597,539
598,539
599,539
600,539
601,539
602,539
603,539
604,539
605,539
606,539
607,539
608,539
609,539
610,539
611,539
612,539
613,539
614,539
615,539
616,539
617,539
618,539
619,539
620,539
621,539
622,539
623,539
624,539
625,539
626,539
627,539
628,539
629,539
630,539
631,539
632,539
633,539
634,539
635,539
636,539
637,539
638,539
639,539
640,539
641,539
642,539
643,539
644,539
645,539
646,539
647,539
648,539
649,539
650,539
651,539
652,539
653,539
654,539
655,539
656,539
657,539
658,539
659,539
660,539
661,539
662,539
663,539
664,539
665,539
666,539
667,539
668,539
669,539
670,539
671,539
672,539
673,539
674,539
675,539
676,539
677,539
678,539
679,539
680,539
681,539
682,539
683,539
684,539
685,539
686,539
687,539
688,539
689,539
690,539
691,539
692,539
693,539
694,539
695,539
696,539
697,539
698,539
699,539
700,539
701,539
702,539
703,539
704,539
705,539
706,539
707,539
708,539
709,539
709,538
710,538
710,537
711,537
711,536
711,535
711,534
712,534
712,533
713,533
713,532
713,531
714,531
714,530
714,529
714,528
714,527
714,526
715,526
715,525
715,524
715,523
715,522
715,521
716,521
716,520
716,519
716,518
716,517
716,516
717,516
717,515
717,514
717,513
717,512
717,511
718,511
718,510
718,509
718,508
718,507
718,506
719,506
719,505
719,504
719,503
719,502
719,501
720,501
720,500
720,499
720,498
720,497
720,496
721,496
721,495
721,494
721,493
721,492
721,491
722,491
722,490
722,489
722,488
722,487
722,486
723,486
723,485
723,484
723,483
723,482
723,481
724,481
724,480
724,479
724,478
724,477
724,476
725,476
725,475
725,474
725,473
725,472
725,471
726,471
726,470
726,469
726,468
726,467
726,466
727,466
727,465
727,464
727,463
727,462
727,461
728,461
728,460
728,459
728,458
728,457
728,456
729,456
729,455
729,454
729,453
729,452
729,451
730,451
730,450
730,449
730,448
730,447
730,446
731,446
731,445
731,444
731,443
731,442
731,441
732,441
732,440
732,439
732,438
732,437
732,436
733,436
733,435
733,434
733,433
733,432
733,431
734,431
734,430
734,429
734,428
734,427
734,426
735,426
735,425
735,424
735,423
735,422
735,421
736,421
736,420
736,419
736,418
736,417
736,416
737,416
737,415
737,414
737,413
737,412
737,411
738,411
738,410
738,409
738,408
738,407
738,406
739,406
739,405
739,404
739,403
739,402
739,401
740,401
740,400
740,399
740,398
740,397
740,396
740,395
740,394
740,393
740,392
740,391
740,390
740,389
740,388
740,387
740,386
740,385
740,384
740,383
740,382
740,381
740,380
740,379
740,378
740,377
740,376
740,375
740,374
740,373
740,372
740,371
740,370
741,370
742,370
743,370
744,370
745,370
746,370
747,370
748,370
749,370
750,370
751,370
752,370
753,370
754,370
755,370
756,370
757,370
758,370
759,370
760,370
761,370
762,370
763,370
764,370
765,370
766,370
767,370
768,370
769,370
770,370
771,370
772,370
773,370
774,370
775,370
776,370
777,370
778,370
779,370
780,370
781,370
782,370
783,370
784,370
785,370
786,370
787,370
788,370
789,370
790,370
791,370
792,370
793,370
794,370
795,370
796,370
797,370
798,370
799,370
800,370
801,370
802,370
803,370
804,370
805,370
806,370
807,370
808,370
809,370
810,370
811,370
812,370
813,370
814,370
815,370
816,370
817,370
818,370
819,370
820,370
821,370
822,370
823,370
824,370
825,370
826,370
827,370
828,370
829,370
